Amperemeter Messbereich, R / Ohm, U_mess / V, I / mA
200 mA,inf,0.943,0.0
200 mA,330,0.883,2.6
200 mA,100,0.836,8.2
200 mA,33,0.786,23.3
200 mA,10,0.725,64.6
200 mA,3.3,0.648,154.3
2 A,1.0,0.492,392
2 A,0.33,0.376,616
2 A,0.1,0.297,789
2 A,0,0.254,886

